\relax 
\providecommand\HyperFirstAtBeginDocument{\AtBeginDocument}
\HyperFirstAtBeginDocument{\ifx\hyper@anchor\@undefined
\global\let\oldcontentsline\contentsline
\gdef\contentsline#1#2#3#4{\oldcontentsline{#1}{#2}{#3}}
\global\let\oldnewlabel\newlabel
\gdef\newlabel#1#2{\newlabelxx{#1}#2}
\gdef\newlabelxx#1#2#3#4#5#6{\oldnewlabel{#1}{{#2}{#3}}}
\AtEndDocument{\ifx\hyper@anchor\@undefined
\let\contentsline\oldcontentsline
\let\newlabel\oldnewlabel
\fi}
\fi}
\global\let\hyper@last\relax 
\gdef\HyperFirstAtBeginDocument#1{#1}
\providecommand\HyField@AuxAddToFields[1]{}
\@writefile{lof}{\contentsline {figure}{\numberline {1}{\ignorespaces Example of a tree\relax }}{1}{figure.caption.1}}
\providecommand*\caption@xref[2]{\@setref\relax\@undefined{#1}}
\newlabel{fig:example_tree}{{1}{1}{Example of a tree\relax \relax }{figure.caption.1}{}}
\@writefile{lof}{\contentsline {figure}{\numberline {2}{\ignorespaces Adding an element to the tree\relax }}{1}{figure.caption.2}}
\newlabel{fig:example_adding_tree}{{2}{1}{Adding an element to the tree\relax \relax }{figure.caption.2}{}}
\@writefile{lof}{\contentsline {figure}{\numberline {3}{\ignorespaces Removing an element from the tree\relax }}{2}{figure.caption.3}}
\newlabel{fig:example_removal_tree}{{3}{2}{Removing an element from the tree\relax \relax }{figure.caption.3}{}}
\@writefile{toc}{\contentsline {section}{\numberline {1}Basic Requirements}{2}{section.1}}
\@writefile{toc}{\contentsline {section}{\numberline {2}Tips}{2}{section.2}}
