\BOOKMARK [1][-]{section.1}{Exercise 1: Cellphones part 1}{}% 1
\BOOKMARK [2][-]{subsection.1.1}{Scenario}{section.1}% 2
\BOOKMARK [2][-]{subsection.1.2}{Requirements}{section.1}% 3
\BOOKMARK [2][-]{subsection.1.3}{Extras}{section.1}% 4
\BOOKMARK [1][-]{section.2}{Exercise 2: Cellphones part 2}{}% 5
\BOOKMARK [2][-]{subsection.2.1}{Scenario}{section.2}% 6
\BOOKMARK [2][-]{subsection.2.2}{Requirements}{section.2}% 7
\BOOKMARK [2][-]{subsection.2.3}{Extras}{section.2}% 8
