\relax 
\providecommand\HyperFirstAtBeginDocument{\AtBeginDocument}
\HyperFirstAtBeginDocument{\ifx\hyper@anchor\@undefined
\global\let\oldcontentsline\contentsline
\gdef\contentsline#1#2#3#4{\oldcontentsline{#1}{#2}{#3}}
\global\let\oldnewlabel\newlabel
\gdef\newlabel#1#2{\newlabelxx{#1}#2}
\gdef\newlabelxx#1#2#3#4#5#6{\oldnewlabel{#1}{{#2}{#3}}}
\AtEndDocument{\ifx\hyper@anchor\@undefined
\let\contentsline\oldcontentsline
\let\newlabel\oldnewlabel
\fi}
\fi}
\global\let\hyper@last\relax 
\gdef\HyperFirstAtBeginDocument#1{#1}
\providecommand\HyField@AuxAddToFields[1]{}
\@writefile{toc}{\contentsline {section}{\numberline {1}Exercise 1: Cellphones part 1}{1}{section.1}}
\@writefile{toc}{\contentsline {subsection}{\numberline {1.1}Scenario}{1}{subsection.1.1}}
\@writefile{toc}{\contentsline {subsection}{\numberline {1.2}Requirements}{1}{subsection.1.2}}
\@writefile{toc}{\contentsline {subsection}{\numberline {1.3}Extras}{1}{subsection.1.3}}
\@writefile{toc}{\contentsline {section}{\numberline {2}Exercise 2: Cellphones part 2}{2}{section.2}}
\@writefile{toc}{\contentsline {subsection}{\numberline {2.1}Scenario}{2}{subsection.2.1}}
\@writefile{toc}{\contentsline {subsection}{\numberline {2.2}Requirements}{2}{subsection.2.2}}
\@writefile{toc}{\contentsline {subsection}{\numberline {2.3}Extras}{2}{subsection.2.3}}
